%YAML 1.1
%TAG !u! tag:unity3d.com,2011:
--- !u!21 &-7775919120874131356
Material:
  serializedVersion: 6
  m_ObjectHideFlags: 1
  m_CorrespondingSourceObject: {fileID: 0}
  m_PrefabInstance: {fileID: 0}
  m_PrefabAsset: {fileID: 0}
  m_Name: TextMeshPro/Sprite
  m_Shader: {fileID: 4800000, guid: cf81c85f95fe47e1a27f6ae460cf182c, type: 3}
  m_ShaderKeywords: 
  m_LightmapFlags: 4
  m_EnableInstancingVariants: 0
  m_DoubleSidedGI: 0
  m_CustomRenderQueue: -1
  stringTagMap: {}
  disabledShaderPasses: []
  m_SavedProperties:
    serializedVersion: 3
    m_TexEnvs:
    - _MainTex:
        m_Texture: {fileID: 2800000, guid: b07c30f2ce485c4488201f59caef81a2, type: 3}
        m_Scale: {x: 1, y: 1}
        m_Offset: {x: 0, y: 0}
    m_Floats:
    - _ColorMask: 15
    - _CullMode: 0
    - _Stencil: 0
    - _StencilComp: 8
    - _StencilOp: 0
    - _StencilReadMask: 255
    - _StencilWriteMask: 255
    - _UseUIAlphaClip: 0
    m_Colors:
    - _ClipRect: {r: -32767, g: -32767, b: 32767, a: 32767}
    - _Color: {r: 1, g: 1, b: 1, a: 1}
  m_BuildTextureStacks: []
--- !u!114 &11400000
MonoBehaviour:
  m_ObjectHideFlags: 0
  m_CorrespondingSourceObject: {fileID: 0}
  m_PrefabInstance: {fileID: 0}
  m_PrefabAsset: {fileID: 0}
  m_GameObject: {fileID: 0}
  m_Enabled: 1
  m_EditorHideFlags: 0
  m_Script: {fileID: 11500000, guid: 84a92b25f83d49b9bc132d206b370281, type: 3}
  m_Name: TutorialTextIcons
  m_EditorClassIdentifier: 
  hashCode: 1355487465
  material: {fileID: -7775919120874131356}
  materialHashCode: 0
  m_Version: 1.1.0
  m_FaceInfo:
    m_FaceIndex: 0
    m_FamilyName: 
    m_StyleName: 
    m_PointSize: 0
    m_Scale: 0
    m_LineHeight: 0
    m_AscentLine: 0
    m_CapLine: 0
    m_MeanLine: 0
    m_Baseline: 0
    m_DescentLine: 0
    m_SuperscriptOffset: 0
    m_SuperscriptSize: 0
    m_SubscriptOffset: 0
    m_SubscriptSize: 0
    m_UnderlineOffset: 0
    m_UnderlineThickness: 0
    m_StrikethroughOffset: 0
    m_StrikethroughThickness: 0
    m_TabWidth: 0
  spriteSheet: {fileID: 2800000, guid: b07c30f2ce485c4488201f59caef81a2, type: 3}
  m_SpriteCharacterTable:
  - m_ElementType: 2
    m_Unicode: 65534
    m_GlyphIndex: 0
    m_Scale: 1
    m_Name: gold
    m_HashCode: 3668640
  - m_ElementType: 2
    m_Unicode: 65534
    m_GlyphIndex: 1
    m_Scale: 1
    m_Name: puzzle
    m_HashCode: -36608948
  - m_ElementType: 2
    m_Unicode: 65534
    m_GlyphIndex: 2
    m_Scale: 1
    m_Name: soul
    m_HashCode: 4108037
  - m_ElementType: 2
    m_Unicode: 65534
    m_GlyphIndex: 3
    m_Scale: 1
    m_Name: pollution
    m_HashCode: -271805066
  - m_ElementType: 2
    m_Unicode: 65534
    m_GlyphIndex: 4
    m_Scale: 1
    m_Name: inven
    m_HashCode: 127874906
  m_SpriteGlyphTable:
  - m_Index: 0
    m_Metrics:
      m_Width: 240
      m_Height: 240
      m_HorizontalBearingX: 0
      m_HorizontalBearingY: 180
      m_HorizontalAdvance: 280
    m_GlyphRect:
      m_X: 0
      m_Y: 480
      m_Width: 240
      m_Height: 240
    m_Scale: 1.2
    m_AtlasIndex: 0
    sprite: {fileID: -3030897034089643510, guid: b07c30f2ce485c4488201f59caef81a2,
      type: 3}
  - m_Index: 1
    m_Metrics:
      m_Width: 240
      m_Height: 240
      m_HorizontalBearingX: 0
      m_HorizontalBearingY: 180
      m_HorizontalAdvance: 280
    m_GlyphRect:
      m_X: 240
      m_Y: 480
      m_Width: 240
      m_Height: 240
    m_Scale: 1.2
    m_AtlasIndex: 0
    sprite: {fileID: 6246089590184836760, guid: b07c30f2ce485c4488201f59caef81a2,
      type: 3}
  - m_Index: 2
    m_Metrics:
      m_Width: 240
      m_Height: 240
      m_HorizontalBearingX: 0
      m_HorizontalBearingY: 180
      m_HorizontalAdvance: 280
    m_GlyphRect:
      m_X: 480
      m_Y: 480
      m_Width: 240
      m_Height: 240
    m_Scale: 1.2
    m_AtlasIndex: 0
    sprite: {fileID: -179322688059707212, guid: b07c30f2ce485c4488201f59caef81a2,
      type: 3}
  - m_Index: 3
    m_Metrics:
      m_Width: 240
      m_Height: 240
      m_HorizontalBearingX: 0
      m_HorizontalBearingY: 180
      m_HorizontalAdvance: 280
    m_GlyphRect:
      m_X: 0
      m_Y: 240
      m_Width: 240
      m_Height: 240
    m_Scale: 1.2
    m_AtlasIndex: 0
    sprite: {fileID: -669501017478197892, guid: b07c30f2ce485c4488201f59caef81a2,
      type: 3}
  - m_Index: 4
    m_Metrics:
      m_Width: 240
      m_Height: 240
      m_HorizontalBearingX: 0
      m_HorizontalBearingY: 180
      m_HorizontalAdvance: 280
    m_GlyphRect:
      m_X: 240
      m_Y: 240
      m_Width: 240
      m_Height: 240
    m_Scale: 1.2
    m_AtlasIndex: 0
    sprite: {fileID: -3099805679278652674, guid: b07c30f2ce485c4488201f59caef81a2,
      type: 3}
  spriteInfoList: []
  fallbackSpriteAssets: []
